<svg version="1.1" id="Layer_1" xmlns="http://www.w3.org/2000/svg" xmlns:xlink="http://www.w3.org/1999/xlink" x="0px" y="0px" viewBox="0 0 83.6 86.1" style="enable-background:new 0 0 83.6 86.1;" xml:space="preserve">
<style type="text/css">
	.st0{fill:none;stroke:#FFFFFF;stroke-width:5;stroke-linecap:round;stroke-linejoin:round;stroke-miterlimit:10;}

		.st1{opacity:0.32;fill:none;stroke:#000000;stroke-width:5;stroke-linecap:round;stroke-linejoin:round;stroke-miterlimit:10;enable-background:new    ;}
</style>
<g id="Layer_1_1_">
	<polyline class="st0" points="25.9,75.5 58.5,42.9 25.9,10.5  "/>
</g>
<g id="Layer_2_1_">
	<polyline class="st1" points="25.9,76.3 58.5,43.9 25.9,11.3  "/>
</g>
</svg>
